{
	"ulid": "01GN4WFAV81QSE3T8QZHCGPJTF",
	"minTime": 1671967283149,
	"maxTime": 1671969600000,
	"stats": {
		"numSamples": 714466,
		"numSeries": 9345,
		"numChunks": 9345
	},
	"compaction": {
		"level": 1,
		"sources": [
			"01GN4WFAV81QSE3T8QZHCGPJTF"
		]
	},
	"version": 1
}